Nama: Farzan Argani
NIM :1207050036


6. Buatlah fungsi lastday yang menerima nama hari sekarang (senin..ahad) dan mengembalikan nama hari kemarennya

jawab: 

#include <stdio.h>
#include <iostream>
using namespace std;

int main(){
    int n;
    int x;
    cout<<"Asumsikan hari ini adalah Minggu.\nMasukkan n hari selanjutnya: ";
    cin>>n;
    if(n>=0){
        cout<<"%d hari selanjutnya adalah "<<n;
    }else{
        cout<<"Access denied!\n";
    }
    x=n%7;
    switch(x){
    case 0:
        cout<<"Minggu\n\n";
    break;
    case 1:
        cout<<"Senin\n\n";
    break;
    case 2:
        cout<<"Selasa\n\n";
    break;
    case 3:
        cout<<"Rabu\n\n";
    break;
    case 4:
        cout<<"Kamis\n\n";
    break;
    case 5:
        cout<<"Jumat\n\n";
    break;
    case 6:
        cout<<"Sabtu\n\n";
    break;
    default:
        cout<<"Data yang Anda inputkan tidak valid!\n\n";
    break;
    }
    system;
    return 0;
}
